[
  {
    "profile": {
      "name": "Henry_Stanford_2",
      "share_high": 95,
      "share_low": 0,
      "threshold": 10
    },
    "score": 165779,
    "share%": 76.59949999999999,
    "shares": 153199,
    "steals": 46801
  },
  {
    "profile": {
      "name": "Mark1",
      "share_high": 70,
      "share_low": 35,
      "threshold": 40
    },
    "score": 166205,
    "share%": 53.912499999999994,
    "shares": 107825,
    "steals": 92175
  },
  {
    "profile": {
      "name": "Matt Summers 2",
      "share_high": 90,
      "share_low": 0,
      "threshold": 3
    },
    "score": 167416,
    "share%": 76.9465,
    "shares": 153893,
    "steals": 46107
  },
  {
    "profile": {
      "name": "Henry_Stanford_1",
      "share_high": 85,
      "share_low": 0,
      "threshold": 10
    },
    "score": 168208,
    "share%": 68.5575,
    "shares": 137115,
    "steals": 62885
  },
  {
    "profile": {
      "name": "Matt Summers 1",
      "share_high": 90,
      "share_low": 0,
      "threshold": 10
    },
    "score": 169376,
    "share%": 72.5865,
    "shares": 145173,
    "steals": 54827
  },
  {
    "profile": {
      "name": "Mark2",
      "share_high": 65,
      "share_low": 25,
      "threshold": 40
    },
    "score": 172067,
    "share%": 46.394000000000005,
    "shares": 92788,
    "steals": 107212
  },
  {
    "profile": {
      "name": "Andrew Woodford_1",
      "share_high": 60,
      "share_low": 0,
      "threshold": 15
    },
    "score": 174281,
    "share%": 48.224000000000004,
    "shares": 96448,
    "steals": 103552
  },
  {
    "profile": {
      "name": "indra_1",
      "share_high": 55.00000000000001,
      "share_low": 30,
      "threshold": 40
    },
    "score": 179187,
    "share%": 43.457,
    "shares": 86914,
    "steals": 113086
  },
  {
    "profile": {
      "name": "ChrisOgilvie1",
      "share_high": 65,
      "share_low": 45,
      "threshold": 40
    },
    "score": 181231,
    "share%": 55.686,
    "shares": 111372,
    "steals": 88628
  },
  {
    "profile": {
      "name": "Dan_Staff_2",
      "share_high": 50,
      "share_low": 50,
      "threshold": 50
    },
    "score": 181672,
    "share%": 50.051,
    "shares": 100102,
    "steals": 99898
  },
  {
    "profile": {
      "name": "PaulJ_1",
      "share_high": 50,
      "share_low": 50,
      "threshold": 50
    },
    "score": 182104,
    "share%": 49.879,
    "shares": 99758,
    "steals": 100242
  },
  {
    "profile": {
      "name": "indra_2",
      "share_high": 70,
      "share_low": 55.00000000000001,
      "threshold": 55.00000000000001
    },
    "score": 182676,
    "share%": 59.109500000000004,
    "shares": 118219,
    "steals": 81781
  },
  {
    "profile": {
      "name": "Lewis_Ball_2",
      "share_high": 80,
      "share_low": 0,
      "threshold": 20
    },
    "score": 182971,
    "share%": 60.875,
    "shares": 121750,
    "steals": 78250
  },
  {
    "profile": {
      "name": "Amy Cunliffe_2",
      "share_high": 60,
      "share_low": 80,
      "threshold": 40
    },
    "score": 184513,
    "share%": 69.3175,
    "shares": 138635,
    "steals": 61365
  },
  {
    "profile": {
      "name": "ChrisOgilvie2",
      "share_high": 60,
      "share_low": 35,
      "threshold": 57.99999999999999
    },
    "score": 185276,
    "share%": 40.8125,
    "shares": 81625,
    "steals": 118375
  },
  {
    "profile": {
      "name": "lauren_1",
      "share_high": 66,
      "share_low": 33,
      "threshold": 68
    },
    "score": 186087,
    "share%": 38.1195,
    "shares": 76239,
    "steals": 123761
  },
  {
    "profile": {
      "name": "GeorgiaVann2",
      "share_high": 50,
      "share_low": 88.6,
      "threshold": 39
    },
    "score": 187281,
    "share%": 67.943,
    "shares": 135886,
    "steals": 64114
  },
  {
    "profile": {
      "name": "PaulJ_2",
      "share_high": 10,
      "share_low": 50,
      "threshold": 65
    },
    "score": 192474,
    "share%": 43.2195,
    "shares": 86439,
    "steals": 113561
  },
  {
    "profile": {
      "name": "Tim Bazalgette_2",
      "share_high": 20,
      "share_low": 90,
      "threshold": 60
    },
    "score": 193803,
    "share%": 76.992,
    "shares": 153984,
    "steals": 46016
  },
  {
    "profile": {
      "name": "GeorgiaVann1",
      "share_high": 0,
      "share_low": 67.6,
      "threshold": 62.8
    },
    "score": 194752,
    "share%": 55.909,
    "shares": 111818,
    "steals": 88182
  },
  {
    "profile": {
      "name": "Tim Bazalgette_1",
      "share_high": 20,
      "share_low": 90,
      "threshold": 30
    },
    "score": 197801,
    "share%": 50.892,
    "shares": 101784,
    "steals": 98216
  },
  {
    "profile": {
      "name": "DaveP_1",
      "share_high": 90.8,
      "share_low": 1.1,
      "threshold": 55.50000000000001
    },
    "score": 206135,
    "share%": 27.2175,
    "shares": 54435,
    "steals": 145565
  },
  {
    "profile": {
      "name": "Graham_2",
      "share_high": 0,
      "share_low": 0,
      "threshold": 0
    },
    "score": 207111,
    "share%": 0,
    "shares": 0,
    "steals": 200000
  },
  {
    "profile": {
      "name": "Graham_1",
      "share_high": 0,
      "share_low": 0,
      "threshold": 0
    },
    "score": 207321,
    "share%": 0,
    "shares": 0,
    "steals": 200000
  },
  {
    "profile": {
      "name": "Sam_1",
      "share_high": 0,
      "share_low": 0,
      "threshold": 50
    },
    "score": 207594,
    "share%": 0,
    "shares": 0,
    "steals": 200000
  },
  {
    "profile": {
      "name": "TimH_2",
      "share_high": 0,
      "share_low": 0,
      "threshold": 100
    },
    "score": 207729,
    "share%": 0,
    "shares": 0,
    "steals": 200000
  },
  {
    "profile": {
      "name": "TimH_1 ",
      "share_high": 0,
      "share_low": 0,
      "threshold": 0
    },
    "score": 208116,
    "share%": 0,
    "shares": 0,
    "steals": 200000
  },
  {
    "profile": {
      "name": "Jacob_Hutchings_2",
      "share_high": 0,
      "share_low": 50,
      "threshold": 0
    },
    "score": 208440,
    "share%": 0,
    "shares": 0,
    "steals": 200000
  },
  {
    "profile": {
      "name": "AlexMarkham_2",
      "share_high": 70,
      "share_low": 5,
      "threshold": 50
    },
    "score": 208528,
    "share%": 28.0265,
    "shares": 56053,
    "steals": 143947
  },
  {
    "profile": {
      "name": "stephenc_2",
      "share_high": 50,
      "share_low": 0,
      "threshold": 40
    },
    "score": 209865,
    "share%": 28.0385,
    "shares": 56077,
    "steals": 143923
  },
  {
    "profile": {
      "name": "Lewis_Ball_1",
      "share_high": 90,
      "share_low": 5,
      "threshold": 60
    },
    "score": 212389,
    "share%": 22.732,
    "shares": 45464,
    "steals": 154536
  },
  {
    "profile": {
      "name": "ThomJ_2",
      "share_high": 80,
      "share_low": 10,
      "threshold": 90
    },
    "score": 214253,
    "share%": 9.951,
    "shares": 19902,
    "steals": 180098
  },
  {
    "profile": {
      "name": "DaveP_2",
      "share_high": 21,
      "share_low": 1.1,
      "threshold": 66.6
    },
    "score": 215345,
    "share%": 4.5280000000000005,
    "shares": 9056,
    "steals": 190944
  },
  {
    "profile": {
      "name": "Andrew Woodford_2",
      "share_high": 0,
      "share_low": 90,
      "threshold": 50
    },
    "score": 215567,
    "share%": 60.283500000000004,
    "shares": 120567,
    "steals": 79433
  },
  {
    "profile": {
      "name": "Jacob_Hutchings_1",
      "share_high": 0,
      "share_low": 100,
      "threshold": 40
    },
    "score": 217212,
    "share%": 46.381,
    "shares": 92762,
    "steals": 107238
  },
  {
    "profile": {
      "name": "Amy Cunliffe_1",
      "share_high": 0,
      "share_low": 100,
      "threshold": 30
    },
    "score": 220030,
    "share%": 43.808,
    "shares": 87616,
    "steals": 112384
  },
  {
    "profile": {
      "name": "lauren_2",
      "share_high": 63,
      "share_low": 20,
      "threshold": 72
    },
    "score": 221954,
    "share%": 24.014,
    "shares": 48028,
    "steals": 151972
  },
  {
    "profile": {
      "name": "stephenc_1",
      "share_high": 80,
      "share_low": 0,
      "threshold": 60
    },
    "score": 231798,
    "share%": 16.8745,
    "shares": 33749,
    "steals": 166251
  },
  {
    "profile": {
      "name": "AlexMarkham_1",
      "share_high": 15,
      "share_low": 60,
      "threshold": 20
    },
    "score": 233648,
    "share%": 25.769,
    "shares": 51538,
    "steals": 148462
  },
  {
    "profile": {
      "name": "ThomJ_1",
      "share_high": 60,
      "share_low": 20,
      "threshold": 80
    },
    "score": 236002,
    "share%": 19.983,
    "shares": 39966,
    "steals": 160034
  },
  {
    "profile": {
      "name": "Dan_Staff_1",
      "share_high": 10,
      "share_low": 80,
      "threshold": 10
    },
    "score": 237940,
    "share%": 23.5445,
    "shares": 47089,
    "steals": 152911
  },
  {
    "profile": {
      "name": "Sam_2",
      "share_high": 0,
      "share_low": 100,
      "threshold": 20
    },
    "score": 247888,
    "share%": 23.7115,
    "shares": 47423,
    "steals": 152577
  }
]